Site,Sitename,SysSize
PH-001X,"Gaisano Capital, Casuntingan, Cebu,",381.6
PH-002X,"Koldstor, Cavite,",503.5
PH-003X,"Gaisano Capital, Saver's Mart, Cebu,",190.8
PH-004X,"Gaisano Capital, SRP, Cebu,",320
PH-005X,"Gaisano Capital, Tisa, Cebu,",256
PH-006X,"Gaisano Capital, Mactan, Cebu,",300.8
PH-006S,"Gaisano Capital, Mactan, Cebu,",300.8
PH-007X,"Gaisano Capital, South, Cebu,",294.4
